…
There are tree functions in package: `splinkr_datasets`*,*
`splinkr_records` and `splinkr_images`.

    # load package
    library(splinkr)

### Function `splinkr_datasets()`

The function `splinkr_datasets()` with no arguments returns a `tibble`
with all datasets of biological collections included in *species*Link
network.

    splinkr_datasets()
    #> # A tibble: 529 x 9
    #>    collectionCode collectionName institutionCode institutionName scope
    #>    <chr>          <chr>          <chr>           <chr>           <chr>
    #>  1 AcariESALQ     Coleção de Ác… USP             Universidade d… anim…
    #>  2 ALCB           Herbário Alex… UFBA            Universidade F… plan…
    #>  3 AMNH-Bee       Collaborative… AMNH            American Museu… anim…
    #>  4 ANSP-Ichthyol… The Academy o… ANSP            The Academy of… anim…
    #>  5 Aranhas-Solob… Coleção de Ar… UFPR            Universidade F… anim…
    #>  6 ARAR           Coleção Aracn… UPF             Universidade d… anim…
    #>  7 ASE            Herbário da U… UFS             Universidade F… plan…
    #>  8 ASU-Lichen     Arizona State… ASU             Arizona State … plan…
    #>  9 ASU-Plants     Arizona State… ASU             Arizona State … plan…
    #> 10 B              Herbarium Ber… FU-Berlin       Freie Universi… plan…
    #> # … with 519 more rows, and 4 more variables: numberOfRecords <chr>,
    #> #   location <chr>, keywords_pt <chr>, keywords_en <chr>

Pass one term to `filter` argument filtering all variables (columns) of
datasets.

    splinkr_datasets(filter = "universidade")
    #> # A tibble: 326 x 9
    #>    collectionCode collectionName institutionCode institutionName scope
    #>    <chr>          <chr>          <chr>           <chr>           <chr>
    #>  1 AcariESALQ     Coleção de Ác… USP             Universidade d… anim…
    #>  2 ALCB           Herbário Alex… UFBA            Universidade F… plan…
    #>  3 Aranhas-Solob… Coleção de Ar… UFPR            Universidade F… anim…
    #>  4 ARAR           Coleção Aracn… UPF             Universidade d… anim…
    #>  5 ASE            Herbário da U… UFS             Universidade F… plan…
    #>  6 BHCB           Herbário da U… UFMG            Universidade F… plan…
    #>  7 BHCB-Bryophyta Herbário da U… UFMG            Universidade F… plan…
    #>  8 BHCB-SL        Herbário da U… UFMG            Universidade F… plan…
    #>  9 BMA            Herbário Mara… UFMA            Universidade F… plan…
    #> 10 BOTU           Herbário Irin… UNESP           Universidade E… plan…
    #> # … with 316 more rows, and 4 more variables: numberOfRecords <chr>,
    #> #   location <chr>, keywords_pt <chr>, keywords_en <chr>

If more than one term is passed to `filter`, intersection filtering is
performed, that is, the search with second term is only performed on
subset obtained from filtering with first term. The search with third
term is only done in subset of second term and so on…

    splinkr_datasets(filter = c("universidade", "herbário", "brasil"))
    #> # A tibble: 135 x 9
    #>    collectionCode collectionName institutionCode institutionName scope
    #>    <chr>          <chr>          <chr>           <chr>           <chr>
    #>  1 ALCB           Herbário Alex… UFBA            Universidade F… plan…
    #>  2 ASE            Herbário da U… UFS             Universidade F… plan…
    #>  3 BHCB           Herbário da U… UFMG            Universidade F… plan…
    #>  4 BHCB-Bryophyta Herbário da U… UFMG            Universidade F… plan…
    #>  5 BHCB-SL        Herbário da U… UFMG            Universidade F… plan…
    #>  6 BMA            Herbário Mara… UFMA            Universidade F… plan…
    #>  7 BOTU           Herbário Irin… UNESP           Universidade E… plan…
    #>  8 BOTU-Fungi     Herbário Irin… UNESP           Universidade E… plan…
    #>  9 CESJ           Herbário Leop… UFJF            Universidade F… plan…
    #> 10 CGMS           Herbário da F… UFMS            Universidade F… plan…
    #> # … with 125 more rows, and 4 more variables: numberOfRecords <chr>,
    #> #   location <chr>, keywords_pt <chr>, keywords_en <chr>
Note that filtering do not matches case, but matches with portuguese
diacritical signs.

    splinkr_datasets(filter = c("Herbario"))
    #> # A tibble: 3 x 9
    #>   collectionCode collectionName institutionCode institutionName scope
    #>   <chr>          <chr>          <chr>           <chr>           <chr>
    #> 1 HJ             Herbario Jata… UFJ             Universidade F… plan…
    #> 2 HUEFS          Herbario da U… UEFS            Universidade E… plan…
    #> 3 MBML-Herbario  Herbário Mell… INMA            Instituto Naci… plan…
    #> # … with 4 more variables: numberOfRecords <chr>, location <chr>,
    #> #   keywords_pt <chr>, keywords_en <chr>

    splinkr_datasets(filter = c("herbário"))
    #> # A tibble: 203 x 9
    #>    collectionCode collectionName institutionCode institutionName scope
    #>    <chr>          <chr>          <chr>           <chr>           <chr>
    #>  1 ALCB           Herbário Alex… UFBA            Universidade F… plan…
    #>  2 ASE            Herbário da U… UFS             Universidade F… plan…
    #>  3 ASU-Plants     Arizona State… ASU             Arizona State … plan…
    #>  4 B              Herbarium Ber… FU-Berlin       Freie Universi… plan…
    #>  5 BAH            Herbário Antô… EBDA            Empresa Baiana… plan…
    #>  6 BHCB           Herbário da U… UFMG            Universidade F… plan…
    #>  7 BHCB-Bryophyta Herbário da U… UFMG            Universidade F… plan…
    #>  8 BHCB-SL        Herbário da U… UFMG            Universidade F… plan…
    #>  9 BHZB           Herbário do J… FZB-BH          Fundação Zoo-B… plan…
    #> 10 BLA            Brazilian Lab… FEPAGRO         Fundação Estad… plan…
    #> # … with 193 more rows, and 4 more variables: numberOfRecords <chr>,
    #> #   location <chr>, keywords_pt <chr>, keywords_en <chr>
…
