Read speciesLink datasets — splinkr_datasets • splinkr
…
    Arguments

      filter
      Character vector containing one or more terms to filter datasets

    Value

    data.frame() with the datasets

    Examples

# return all datasets
splinkr_datasets()

#> # A tibble: 529 x 9
#>    collectionCode collectionName institutionCode institutionName scope
#>    <chr>          <chr>          <chr>           <chr>           <chr>
#>  1 AcariESALQ     Coleção de Ác… USP             Universidade d… anim…
#>  2 ALCB           Herbário Alex… UFBA            Universidade F… plan…
#>  3 AMNH-Bee       Collaborative… AMNH            American Museu… anim…
#>  4 ANSP-Ichthyol… The Academy o… ANSP            The Academy of… anim…
#>  5 Aranhas-Solob… Coleção de Ar… UFPR            Universidade F… anim…
#>  6 ARAR           Coleção Aracn… UPF             Universidade d… anim…
#>  7 ASE            Herbário da U… UFS             Universidade F… plan…
#>  8 ASU-Lichen     Arizona State… ASU             Arizona State … plan…
#>  9 ASU-Plants     Arizona State… ASU             Arizona State … plan…
#> 10 B              Herbarium Ber… FU-Berlin       Freie Universi… plan…
#> # … with 519 more rows, and 4 more variables: numberOfRecords <chr>,
#> #   location <chr>, keywords_pt <chr>, keywords_en <chr>
…
